{
  "assets-sort-type": "name",
  "collision-matrix": [
    [
      true
    ]
  ],
  "design-resolution-height": 720,
  "design-resolution-width": 1280,
  "excluded-modules": [],
  "facebook": {
    "appID": "",
    "audience": {
      "enable": false
    },
    "enable": false,
    "live": {
      "enable": false
    }
  },
  "fit-height": false,
  "fit-width": true,
  "group-list": [
    "default"
  ],
  "last-module-event-record-time": 1589856060726,
  "simulator-orientation": false,
  "simulator-resolution": {
    "height": 640,
    "width": 960
  },
  "start-scene": "current",
  "use-customize-simulator": true,
  "use-project-simulator-setting": false
}