{
  "__type__": "cc.AnimationClip",
  "_name": "playerAnim",
  "_objFlags": 0,
  "_native": "",
  "_duration": 1.1833333333333333,
  "sample": 60,
  "speed": 1,
  "wrapMode": "2",
  "curveData": {
    "comps": {
      "cc.Sprite": {
        "spriteFrame": [
          {
            "frame": 0,
            "value": {
              "__uuid__": "8d9f4782-1925-4e71-850e-a362a2573cb8"
            }
          },
          {
            "frame": 0.08333333333333333,
            "value": {
              "__uuid__": "df174795-0f57-4f6e-a70b-1b12d5b7f2a4"
            }
          },
          {
            "frame": 0.16666666666666666,
            "value": {
              "__uuid__": "a0592004-aef7-4230-b33c-3721be654a14"
            }
          },
          {
            "frame": 0.25,
            "value": {
              "__uuid__": "b00030c8-2587-4cf3-9783-6ab98e8b6cee"
            }
          },
          {
            "frame": 0.3333333333333333,
            "value": {
              "__uuid__": "82fde29e-2ed5-4897-8d69-4b1f285ccf3a"
            }
          },
          {
            "frame": 0.4166666666666667,
            "value": {
              "__uuid__": "33021345-39ad-4052-8441-8de38a802d88"
            }
          },
          {
            "frame": 0.5,
            "value": {
              "__uuid__": "e94b489c-4b53-4d5d-b320-08a5a3b372ce"
            }
          },
          {
            "frame": 0.5833333333333334,
            "value": {
              "__uuid__": "1b11e4dd-7f41-4742-85c5-6a74c5406eb9"
            }
          },
          {
            "frame": 0.6666666666666666,
            "value": {
              "__uuid__": "afe7ccce-0c03-4603-b3f4-ce36a0051632"
            }
          },
          {
            "frame": 0.75,
            "value": {
              "__uuid__": "e7901572-9144-4daf-8333-0708fcb1c2a9"
            }
          },
          {
            "frame": 0.8333333333333334,
            "value": {
              "__uuid__": "2727903e-6a79-43da-bfcb-403c85b41cf3"
            }
          },
          {
            "frame": 0.9166666666666666,
            "value": {
              "__uuid__": "8067c3b8-fa99-44b4-9b36-040db0c3e5e0"
            }
          },
          {
            "frame": 1,
            "value": {
              "__uuid__": "a226eeef-eeaa-4c3d-a398-1ec0568620d3"
            }
          },
          {
            "frame": 1.0833333333333333,
            "value": {
              "__uuid__": "b2a7efe7-cd01-4f7b-aa40-15aeb42dedc8"
            }
          },
          {
            "frame": 1.1666666666666667,
            "value": {
              "__uuid__": "8d9f4782-1925-4e71-850e-a362a2573cb8"
            }
          }
        ]
      }
    }
  },
  "events": []
}